{
  "jobs": [
    {
      "createdAt": "2026-03-13T00:00:00Z",
      "id": "job-001",
      "name": "Segment Job One",
      "status": "queued",
      "updatedAt": "2026-03-13T01:00:00Z"
    }
  ],
  "links": {
    "next": "/synthetic/segment_jobs?start=1"
  },
  "page": {
    "limit": 1,
    "start": 0,
    "total": 2
  }
}