{
  "batches": [
    {
      "batch_id": "batch-001",
      "completedTime": "2026-03-14T02:00:00Z",
      "created": "2026-03-14T00:00:00Z",
      "datasetId": "dataset-001",
      "status": "success"
    }
  ],
  "links": {
    "next": "/synthetic/catalog_batches?start=1"
  },
  "page": {
    "limit": 1,
    "start": 0,
    "total": 2
  }
}