{
  "links": {
    "next": "/synthetic/unified_tag_categories?start=1"
  },
  "page": {
    "limit": 1,
    "start": 0,
    "total": 2
  },
  "tagCategories": [
    {
      "id": "cat-001",
      "name": "Lifecycle",
      "status": "active",
      "updatedAt": "2026-03-10T00:00:00Z"
    }
  ]
}