{
  "audiences": [
    {
      "audienceId": "aud-001",
      "createdTime": "2026-02-01T00:00:00Z",
      "displayName": "High Value Audience",
      "state": "active",
      "totalProfiles": 1250,
      "updatedTime": "2026-02-05T00:00:00Z"
    }
  ],
  "links": {
    "next": "/synthetic/ups_audiences?start=1"
  },
  "page": {
    "limit": 1,
    "start": 0,
    "total": 2
  }
}