{
  "links": {
    "next": "/synthetic/observability_metrics?start=1"
  },
  "page": {
    "limit": 1,
    "start": 0,
    "total": 2
  },
  "series": [
    {
      "metric": "failedBatchCount",
      "timestamp": "2026-03-17T00:00:00Z",
      "value": 3,
      "windowEnd": "2026-03-17T01:00:00Z",
      "windowStart": "2026-03-17T00:00:00Z"
    }
  ]
}