{
  "links": {
    "next": "/synthetic/segment_definitions?start=1"
  },
  "page": {
    "limit": 1,
    "start": 0,
    "total": 2
  },
  "segmentDefinitions": [
    {
      "createdAt": "2026-02-02T00:00:00Z",
      "name": "Recent Buyers",
      "segmentId": "seg-001",
      "status": "enabled",
      "totalProfiles": 940,
      "updatedAt": "2026-02-06T00:00:00Z"
    }
  ]
}