{
  "audiences_outcome": "live_success",
  "audiences_status_code": 200,
  "auth_mode": "client_credentials",
  "credential_valid_for_token": "[REDACTED]",
  "diagnostic_only": true,
  "exact_reproduction_status": "exact",
  "fallback_flags": {
    "old_env_fallback_used_for_base_url": false,
    "old_env_fallback_used_for_ims_org": false,
    "old_env_fallback_used_for_sandbox": false,
    "old_env_fallback_used_for_scopes": false,
    "old_env_fallback_used_for_token_url": false,
    "repo_default_fallback_used": false
  },
  "field_sources": {
    "base_url": "organizer_latest_file:ADOBE_BASE_URL",
    "client_id": "organizer_latest_file:CLIENT_ID",
    "client_secret": "organizer_latest_file:CLIENT_SECRET",
    "ims_org": "organizer_latest_file:IMS_ORG",
    "sandbox": "organizer_latest_file:SANDBOX",
    "scopes": "organizer_latest_file:ADOBE_SCOPES",
    "token_url": "organizer_latest_file:ADOBE_IMS_TOKEN_URL"
  },
  "generated_at": "2026-05-24T20:11:58.549882+00:00",
  "latest_env_file": ".env.organizer_latest.local",
  "latest_env_file_loaded": true,
  "missing_required_template_fields": [],
  "next_action": "PATH B exact reproduction succeeded. Next compare repo AdobeAPIClient against this exact request shape.",
  "official_score_claim": false,
  "output_paths": {
    "json": "[REDACTED]/Desktop/dashsys-workshop-vldb/outputs/reports/organizer_latest_working_template_smoke.json",
    "markdown": "[REDACTED]/Desktop/dashsys-workshop-vldb/outputs/reports/organizer_latest_working_template_smoke.md"
  },
  "paths": {
    "PATH_A_old_local_configuration": {
      "attempted": true,
      "comparison_result": "both_same_failure",
      "method": "GET",
      "outcome": "external_api_unavailable",
      "params": {
        "limit": 5
      },
      "path": "/data/core/ups/audiences",
      "source": "historical_report",
      "status_code": 500,
      "token_acquisition_ok": true,
      "token_status_code": 200
    },
    "PATH_B_organizer_latest_exact_direct": {
      "attempted": true,
      "audience_items_present": true,
      "header_names_sent": [
        "Authorization",
        "x-api-key",
        "x-gw-ims-org-id",
        "x-sandbox-name",
        "Content-Type"
      ],
      "header_values_redacted": true,
      "json_parse_ok": true,
      "live_empty": false,
      "live_success": true,
      "method": "GET",
      "outcome": "live_success",
      "params": {
        "limit": 5
      },
      "path": "/data/core/ups/audiences",
      "redacted_response_excerpt": "{\"_links\": {\"next\": {\"href\": \"@/audiences?start=1&limit=5&totalCount=82\"}}, \"_page\": {\"limit\": 5, \"next\": \"1\", \"pageOffset\": \"0\", \"pageSize\": 5, \"start\": \"0\", \"totalCount\": 82, \"totalPages\": 17}, \"children\": [{\"_etag\": \"39781b5e-ee1a-4c0c-a4f6-64a17bf2677b\", \"ansibleUiEnabled\": false, \"audienceId\": \"706ddcd9-12e2-4036-861b-6d58bebc4fa2\", \"createEpoch\": 1776395696, \"createdBy\": \"2E57262769D5626E0A495FBD@8ac11fe266602de4495fc7.e\", \"creationTime\": 1776395696590, \"dataGovernancePolicy\": {\"excludeOptOut\": true}, \"dataRefPaths\": {\"_xdm.context.profile\": [\"_adobepeakprogram.retailStorePropensities.propensityForLoyaltyProgram\"]}, \"definedOn\": [{\"$ref\": \"https://ns.adobe.com/xdm/context/profile__union\", \"meta:containerId\": \"a30a9c4e-327a-4d60-8a9c-4e327a6d60dd\", \"meta:resourceType\": \"unions\"}], \"dependencies\": [], \"dependents\": [], \"description\": \"Top-tier propensity for loyalty program enrollment above 0.8. Tests propensityForLoyaltyProgram at a higher threshold.\", \"evaluationInfo\": {\"batch\": ",
      "safe_response_error_fields": {},
      "status_code": 200
    },
    "PATH_C_repo_client_current": {
      "attempted": false,
      "reason": "PATH B exact reproduction must be established before repo-client correction testing.",
      "status": "not_run_in_path_b_isolation_pass"
    }
  },
  "promotion_allowed": false,
  "report_type": "organizer_latest_working_template_smoke",
  "request_template_shape": {
    "base_url_source": "organizer_latest_file:ADOBE_BASE_URL",
    "data_endpoint_method": "GET",
    "data_endpoint_params": {
      "limit": 5
    },
    "data_endpoint_path": "/data/core/ups/audiences",
    "grant_type": "client_credentials",
    "org_source": "organizer_latest_file:IMS_ORG",
    "required_header_names": [
      "Authorization",
      "x-api-key",
      "x-gw-ims-org-id",
      "x-sandbox-name",
      "Content-Type"
    ],
    "sandbox_source": "organizer_latest_file:SANDBOX",
    "scopes_source": "organizer_latest_file:ADOBE_SCOPES",
    "token_request_content_type": "application/x-www-form-urlencoded",
    "token_request_method": "POST",
    "token_request_url_source": "organizer_latest_file:ADOBE_IMS_TOKEN_URL"
  },
  "safe_boolean_comparison": {
    "latest_matches_repo_client_org": true,
    "latest_matches_repo_client_sandbox": false,
    "latest_matches_repo_client_scopes": false,
    "org_same_old_vs_latest": true,
    "sandbox_same_old_vs_latest": false,
    "scopes_same_old_vs_latest": true,
    "token_content_type_same_old_vs_latest": false
  },
  "test_template": "organizer_latest_working_template",
  "token_acquisition_ok": true,
  "token_error_category": null,
  "token_request_evidence": {
    "access_token_field_present": true,
    "expires_in_present": true,
    "grant_type": "client_credentials",
    "token_acquisition_ok": true,
    "token_error_category": null,
    "token_json_parse_ok": true,
    "token_request_attempted": true,
    "token_request_method": "POST",
    "token_request_url_host": "ims-na1.adobelogin.com",
    "token_status_code": 200
  },
  "token_status_code": 200,
  "ups_audiences_access_valid": true
}