{
  "failed": [
    {
      "batch_id": "batch-001",
      "error": "Synthetic export failure",
      "fileName": "part-0002.json",
      "id": "failed-file-001",
      "status": "failed"
    }
  ],
  "links": {
    "next": "/synthetic/export_batch_failed?start=1"
  },
  "page": {
    "limit": 1,
    "start": 0,
    "total": 2
  }
}