{
  "events": [
    {
      "action": "update",
      "actor": "synthetic-user",
      "assetId": "schema-001",
      "assetType": "schema",
      "eventId": "event-short-001",
      "timestamp": "2026-03-16T00:00:00Z"
    }
  ],
  "links": {
    "next": "/synthetic/audit_events_short?start=1"
  },
  "page": {
    "limit": 1,
    "start": 0,
    "total": 2
  }
}