{
  "flows": [
    {
      "createdAt": "2026-03-01T00:00:00Z",
      "destinationConnectionId": "dest-001",
      "flowId": "flow-001",
      "name": "Destination Activation Flow",
      "sourceConnectionId": "source-001",
      "state": "enabled",
      "updatedAt": "2026-03-03T00:00:00Z"
    }
  ],
  "links": {
    "next": "/synthetic/flowservice_flows?start=1"
  },
  "page": {
    "limit": 1,
    "start": 0,
    "total": 2
  }
}