{
  "files": [
    {
      "batch_id": "batch-001",
      "fileName": "part-0001.json",
      "id": "file-001",
      "size": 2048,
      "status": "available"
    }
  ],
  "links": {
    "next": "/synthetic/export_batch_files?start=1"
  },
  "page": {
    "limit": 1,
    "start": 0,
    "total": 2
  }
}