{
  "links": {
    "next": "/synthetic/unified_tag_detail?start=1"
  },
  "page": {
    "limit": 1,
    "start": 0,
    "total": 2
  },
  "tags": [
    {
      "description": "Synthetic tag detail",
      "name": "VIP",
      "tagCategoryId": "cat-001",
      "tag_id": "tag-001",
      "updatedAt": "2026-03-11T00:00:00Z"
    }
  ]
}