{
  "links": {
    "next": "/synthetic/flowservice_runs?start=1"
  },
  "page": {
    "limit": 1,
    "start": 0,
    "total": 2
  },
  "runs": [
    {
      "completedAt": "2026-03-04T00:15:00Z",
      "errorInfo": {
        "message": "Synthetic failure"
      },
      "flowId": "flow-001",
      "runId": "run-001",
      "runStatus": "failed",
      "startedAt": "2026-03-04T00:00:00Z"
    }
  ]
}