{
  "links": {
    "next": "/synthetic/schema_registry_schemas?start=1"
  },
  "page": {
    "limit": 1,
    "start": 0,
    "total": 2
  },
  "schemas": [
    {
      "isProfileEnabled": true,
      "schema_id": "schema-001",
      "title": "Loyalty Event Schema",
      "updatedAt": "2026-03-07T00:00:00Z",
      "version": "1.0"
    }
  ]
}