{
  "journeys": [
    {
      "createdAt": "2026-01-01T00:00:00Z",
      "id": "journey-001",
      "modifiedTime": "2026-01-10T00:00:00Z",
      "name": "Welcome Journey",
      "publishedTime": "2026-01-11T00:00:00Z",
      "status": "live"
    }
  ],
  "links": {
    "next": "/synthetic/journey_list?start=1"
  },
  "page": {
    "limit": 1,
    "start": 0,
    "total": 2
  }
}