{
  "links": {
    "next": "/synthetic/schemas_short?start=1"
  },
  "page": {
    "limit": 1,
    "start": 0,
    "total": 2
  },
  "schemas": [
    {
      "isProfileEnabled": false,
      "schema_id": "schema-short-001",
      "title": "Short Schema",
      "updatedAt": "2026-03-08T00:00:00Z",
      "version": "1.0"
    }
  ]
}