{
  "links": {
    "next": "/synthetic/merge_policies?start=1"
  },
  "mergePolicies": [
    {
      "isDefault": true,
      "name": "Default Merge Policy",
      "policyId": "policy-001",
      "schema": "_xdm.context.profile",
      "updatedAt": "2026-03-12T00:00:00Z"
    }
  ],
  "page": {
    "limit": 1,
    "start": 0,
    "total": 2
  }
}