{
  "links": {
    "next": "/synthetic/unified_tags?start=1"
  },
  "page": {
    "limit": 1,
    "start": 0,
    "total": 2
  },
  "tags": [
    {
      "name": "VIP",
      "tagCategoryId": "cat-001",
      "tagCategoryName": "Lifecycle",
      "tag_id": "tag-001",
      "updatedAt": "2026-03-09T00:00:00Z"
    }
  ]
}