{
  "events": [
    {
      "action": "create",
      "actor": "synthetic-user",
      "assetId": "dataset-001",
      "assetType": "dataset",
      "eventId": "event-001",
      "timestamp": "2026-03-15T00:00:00Z"
    }
  ],
  "links": {
    "next": "/synthetic/audit_events?start=1"
  },
  "page": {
    "limit": 1,
    "start": 0,
    "total": 2
  }
}